45;26;2;f;29;19;0;f;2
10;100;2;f;20;10;2;f;2
35;50;2;f;42;20;2;t;2
29;12;3;f;28;15;3;f;2
47;30;1;f;48;30;1;f;1
7;12;3;t;9;14;3;f;1
10;80;2;f;26;30;2;f;2
10;80;2;f;26;50;2;f;2
48;9;0;f;47;9;0;f;1
36;30;2;f;23;14;0;f;1
60;22;0;f;55;28;0;f;2
10;10;2;f;12;12;2;f;1
60;3;1;f;55;26;0;f;2
21;10;2;f;23;9;2;f;1
35;60;0;f;49;14;0;f;2
23;10;1;f;29;1;1;f;1
52;15;1;f;49;20;0;f;2
40;20;0;f;41;13;0;f;1
53;30;0;f;52;25;0;f;1
16;30;0;f;23;10;0;f;2
