0;0;0
200;200;-20
200;200;-30
200;200;-50
160;160;-80
160;160;-100
160;160;-120
150;150;-130
150;150;-150
140;140;-180
140;140;-200
130;130;-200
130;130;-200
130;130;-200
130;130;-200
130;130;-200
120;120;-200
120;120;-200
120;120;-200
120;120;-300
120;110;-300
120;110;-300
120;110;-300
110;110;-300
110;100;-300
110;100;-300
110;100;-300
100;100;-300
100;100;-300
100;100;-300
100;100;-300
100;90;-300
100;90;-300
100;90;-500
100;90;-500
100;90;-500
100;80;-500
100;80;-500
100;80;-500
90;80;-500
90;80;-500
90;80;-500
90;70;-500
90;70;-500
90;70;-500
80;70;-500
80;70;-500
80;70;-500
80;70;-500
80;70;-500
80;60;-500
70;60;-500
70;60;-500
70;60;-500
70;60;-500
70;60;-500
70;60;-500
70;60;-500
60;60;-500
60;60;-500
60;60;-500
60;60;-500
60;60;-500
60;60;-500
60;60;-500
60;50;-500
60;50;-500
60;50;-500
60;50;-500
50;50;-500
50;50;-500
50;50;-500
50;50;-500
50;50;-500
50;50;-500
50;50;-500
50;50;-500
50;50;-500
50;50;-500
50;40;-500
50;40;-500
50;40;-500
50;40;-500
50;40;-500
50;40;-500
40;40;-500
40;40;-500
40;40;-500
40;40;-500
40;40;-500
40;40;-500
40;40;-500
40;40;-500
40;40;-500
40;40;-500
40;40;-500
40;40;-500
40;40;-500
40;40;-500
40;40;-500
40;40;-500
40;30;-500
40;30;-500
40;30;-500
40;30;-500
40;30;-500
40;30;-500
40;30;-500
40;30;-500
40;30;-500
40;30;-500
40;30;-500
40;30;-500
40;30;-500
40;30;-500
40;30;-500
40;30;-500
40;30;-500
40;30;-500
40;30;-500
40;30;-500
40;30;-500
40;30;-500
40;30;-500
40;30;-500
40;30;-500
40;30;-500
40;30;-500
40;30;-500
40;30;-500
40;30;-500
40;30;-500
40;30;-500
40;30;-500
40;30;-500
40;30;-500
40;30;-500
40;30;-500
40;30;-500
40;30;-500
40;30;-500
40;30;-500
40;30;-500
40;30;-500
40;30;-500
40;30;-500
40;30;-500
40;30;-500
40;30;-500
40;30;-500
40;30;-500
40;30;-500
40;30;-500
40;30;-500
40;30;-500
40;30;-500
40;30;-500
40;30;-500
40;30;-500
40;30;-500
40;30;-500
40;30;-500
40;30;-500
40;30;-500
40;30;-500
40;30;-500
40;30;-500
40;30;-500
40;30;-500
40;30;-500
40;30;-500
40;30;-500
40;30;-500
40;30;-500
40;30;-500
40;30;-500
40;30;-500
40;30;-500
40;30;-500
40;30;-500
40;30;-500
40;30;-500
40;30;-500
40;30;-500
40;30;-500
40;30;-500
40;30;-500
40;30;-500
40;30;-500
40;30;-500
40;30;-500
40;30;-500
40;30;-500
